<?xml version="1.0" encoding="UTF-8" standalone="no"?>
<!-- Created with Inkscape (http://www.inkscape.org/) -->

<svg
   xmlns:dc="http://purl.org/dc/elements/1.1/"
   xmlns:cc="http://creativecommons.org/ns#"
   xmlns:rdf="http://www.w3.org/1999/02/22-rdf-syntax-ns#"
   xmlns:svg="http://www.w3.org/2000/svg"
   xmlns="http://www.w3.org/2000/svg"
   xmlns:sodipodi="http://sodipodi.sourceforge.net/DTD/sodipodi-0.dtd"
   xmlns:inkscape="http://www.inkscape.org/namespaces/inkscape"
   width="210mm"
   height="297mm"
   viewBox="0 0 210 297"
   version="1.1"
   id="svg8"
   inkscape:version="0.92.3 (2405546, 2018-03-11)"
   sodipodi:docname="logo.svg"
   inkscape:export-filename="/home/christian/Development/datahike-invoice/resources/logo.png"
   inkscape:export-xdpi="444.79089"
   inkscape:export-ydpi="444.79089">
  <defs
     id="defs2" />
  <sodipodi:namedview
     id="base"
     pagecolor="#ffffff"
     bordercolor="#666666"
     borderopacity="1.0"
     inkscape:pageopacity="0.0"
     inkscape:pageshadow="2"
     inkscape:zoom="0.98994949"
     inkscape:cx="295.03458"
     inkscape:cy="757.83437"
     inkscape:document-units="mm"
     inkscape:current-layer="layer1"
     showgrid="false"
     inkscape:window-width="1853"
     inkscape:window-height="1025"
     inkscape:window-x="67"
     inkscape:window-y="27"
     inkscape:window-maximized="1" />
  <metadata
     id="metadata5">
    <rdf:RDF>
      <cc:Work
         rdf:about="">
        <dc:format>image/svg+xml</dc:format>
        <dc:type
           rdf:resource="http://purl.org/dc/dcmitype/StillImage" />
        <dc:title></dc:title>
      </cc:Work>
    </rdf:RDF>
  </metadata>
  <g
     inkscape:label="Layer 1"
     inkscape:groupmode="layer"
     id="layer1">
    <rect
       style="opacity:1;fill:#00ff00;fill-opacity:1;stroke:#000000;stroke-width:0.27887082;stroke-miterlimit:4;stroke-dasharray:none;stroke-dashoffset:0"
       id="rect29"
       width="9.6217022"
       height="10.156241"
       x="33.653576"
       y="11.394323"
       transform="rotate(10.680884)" />
    <text
       xml:space="preserve"
       style="font-style:normal;font-weight:normal;font-size:8.75549984px;line-height:125%;font-family:sans-serif;letter-spacing:0px;word-spacing:0px;fill:#000000;fill-opacity:1;stroke:none;stroke-width:0.41041404px;stroke-linecap:butt;stroke-linejoin:miter;stroke-opacity:1"
       x="44.328678"
       y="25.074306"
       id="text33"
       inkscape:export-xdpi="444.79089"
       inkscape:export-ydpi="444.79089"><tspan
         sodipodi:role="line"
         id="tspan31"
         x="44.328678"
         y="25.074306"
         style="stroke-width:0.41041404px">Lambda-Company</tspan></text>
  </g>
</svg>
